%YAML 1.1
%TAG !u! tag:unity3d.com,2011:
--- !u!29 &1
OcclusionCullingSettings:
  m_ObjectHideFlags: 0
  serializedVersion: 2
  m_OcclusionBakeSettings:
    smallestOccluder: 5
    smallestHole: 0.25
    backfaceThreshold: 100
  m_SceneGUID: 00000000000000000000000000000000
  m_OcclusionCullingData: {fileID: 0}
--- !u!104 &2
RenderSettings:
  m_ObjectHideFlags: 0
  serializedVersion: 8
  m_Fog: 0
  m_FogColor: {r: 0.5, g: 0.5, b: 0.5, a: 1}
  m_FogMode: 3
  m_FogDensity: 0.01
  m_LinearFogStart: 0
  m_LinearFogEnd: 300
  m_AmbientSkyColor: {r: 0.212, g: 0.227, b: 0.259, a: 1}
  m_AmbientEquatorColor: {r: 0.114, g: 0.125, b: 0.133, a: 1}
  m_AmbientGroundColor: {r: 0.047, g: 0.043, b: 0.035, a: 1}
  m_AmbientIntensity: 1
  m_AmbientMode: 0
  m_SubtractiveShadowColor: {r: 0.42, g: 0.478, b: 0.627, a: 1}
  m_SkyboxMaterial: {fileID: 10304, guid: 0000000000000000f000000000000000, type: 0}
  m_HaloStrength: 0.5
  m_FlareStrength: 1
  m_FlareFadeSpeed: 3
  m_HaloTexture: {fileID: 0}
  m_SpotCookie: {fileID: 10001, guid: 0000000000000000e000000000000000, type: 0}
  m_DefaultReflectionMode: 0
  m_DefaultReflectionResolution: 128
  m_ReflectionBounces: 1
  m_ReflectionIntensity: 1
  m_CustomReflection: {fileID: 0}
  m_Sun: {fileID: 0}
  m_IndirectSpecularColor: {r: 0.44657898, g: 0.4964133, b: 0.5748178, a: 1}
--- !u!157 &3
LightmapSettings:
  m_ObjectHideFlags: 0
  serializedVersion: 11
  m_GIWorkflowMode: 0
  m_GISettings:
    serializedVersion: 2
    m_BounceScale: 1
    m_IndirectOutputScale: 1
    m_AlbedoBoost: 1
    m_TemporalCoherenceThreshold: 1
    m_EnvironmentLightingMode: 0
    m_EnableBakedLightmaps: 1
    m_EnableRealtimeLightmaps: 1
  m_LightmapEditorSettings:
    serializedVersion: 9
    m_Resolution: 2
    m_BakeResolution: 40
    m_TextureWidth: 1024
    m_TextureHeight: 1024
    m_AO: 0
    m_AOMaxDistance: 1
    m_CompAOExponent: 1
    m_CompAOExponentDirect: 0
    m_Padding: 2
    m_LightmapParameters: {fileID: 0}
    m_LightmapsBakeMode: 1
    m_TextureCompression: 1
    m_FinalGather: 0
    m_FinalGatherFiltering: 1
    m_FinalGatherRayCount: 256
    m_ReflectionCompression: 2
    m_MixedBakeMode: 2
    m_BakeBackend: 0
    m_PVRSampling: 1
    m_PVRDirectSampleCount: 32
    m_PVRSampleCount: 500
    m_PVRBounces: 2
    m_PVRFilterTypeDirect: 0
    m_PVRFilterTypeIndirect: 0
    m_PVRFilterTypeAO: 0
    m_PVRFilteringMode: 1
    m_PVRCulling: 1
    m_PVRFilteringGaussRadiusDirect: 1
    m_PVRFilteringGaussRadiusIndirect: 5
    m_PVRFilteringGaussRadiusAO: 2
    m_PVRFilteringAtrousPositionSigmaDirect: 0.5
    m_PVRFilteringAtrousPositionSigmaIndirect: 2
    m_PVRFilteringAtrousPositionSigmaAO: 1
    m_ShowResolutionOverlay: 1
  m_LightingDataAsset: {fileID: 0}
  m_UseShadowmask: 1
--- !u!196 &4
NavMeshSettings:
  serializedVersion: 2
  m_ObjectHideFlags: 0
  m_BuildSettings:
    serializedVersion: 2
    agentTypeID: 0
    agentRadius: 0.5
    agentHeight: 2
    agentSlope: 45
    agentClimb: 0.4
    ledgeDropHeight: 0
    maxJumpAcrossDistance: 0
    minRegionArea: 2
    manualCellSize: 0
    cellSize: 0.16666667
    manualTileSize: 0
    tileSize: 256
    accuratePlacement: 0
    debug:
      m_Flags: 0
  m_NavMeshData: {fileID: 0}
--- !u!1 &110719803
GameObject:
  m_ObjectHideFlags: 0
  m_PrefabParentObject: {fileID: 0}
  m_PrefabInternal: {fileID: 0}
  serializedVersion: 5
  m_Component:
  - component: {fileID: 110719805}
  - component: {fileID: 110719804}
  m_Layer: 0
  m_Name: Directional Light
  m_TagString: Untagged
  m_Icon: {fileID: 0}
  m_NavMeshLayer: 0
  m_StaticEditorFlags: 0
  m_IsActive: 1
--- !u!108 &110719804
Light:
  m_ObjectHideFlags: 0
  m_PrefabParentObject: {fileID: 0}
  m_PrefabInternal: {fileID: 0}
  m_GameObject: {fileID: 110719803}
  m_Enabled: 1
  serializedVersion: 8
  m_Type: 1
  m_Color: {r: 1, g: 0.95686275, b: 0.8392157, a: 1}
  m_Intensity: 1
  m_Range: 10
  m_SpotAngle: 30
  m_CookieSize: 10
  m_Shadows:
    m_Type: 2
    m_Resolution: -1
    m_CustomResolution: -1
    m_Strength: 1
    m_Bias: 0.05
    m_NormalBias: 0.4
    m_NearPlane: 0.2
  m_Cookie: {fileID: 0}
  m_DrawHalo: 0
  m_Flare: {fileID: 0}
  m_RenderMode: 0
  m_CullingMask:
    serializedVersion: 2
    m_Bits: 4294967295
  m_Lightmapping: 4
  m_AreaSize: {x: 1, y: 1}
  m_BounceIntensity: 1
  m_ColorTemperature: 6570
  m_UseColorTemperature: 0
  m_ShadowRadius: 0
  m_ShadowAngle: 0
--- !u!4 &110719805
Transform:
  m_ObjectHideFlags: 0
  m_PrefabParentObject: {fileID: 0}
  m_PrefabInternal: {fileID: 0}
  m_GameObject: {fileID: 110719803}
  m_LocalRotation: {x: 0.40821788, y: -0.23456968, z: 0.10938163, w: 0.8754261}
  m_LocalPosition: {x: 0, y: 3, z: 0}
  m_LocalScale: {x: 1, y: 1, z: 1}
  m_Children: []
  m_Father: {fileID: 0}
  m_RootOrder: 0
  m_LocalEulerAnglesHint: {x: 50, y: -30, z: 0}
--- !u!1001 &323134362
Prefab:
  m_ObjectHideFlags: 0
  serializedVersion: 2
  m_Modification:
    m_TransformParent: {fileID: 0}
    m_Modifications:
    - target: {fileID: 4987403026492484, guid: 5ec556183dc6ee7448658a217b7dd02a, type: 2}
      propertyPath: m_LocalPosition.x
      value: 0
      objectReference: {fileID: 0}
    - target: {fileID: 4987403026492484, guid: 5ec556183dc6ee7448658a217b7dd02a, type: 2}
      propertyPath: m_LocalPosition.y
      value: 0
      objectReference: {fileID: 0}
    - target: {fileID: 4987403026492484, guid: 5ec556183dc6ee7448658a217b7dd02a, type: 2}
      propertyPath: m_LocalPosition.z
      value: 0
      objectReference: {fileID: 0}
    - target: {fileID: 4987403026492484, guid: 5ec556183dc6ee7448658a217b7dd02a, type: 2}
      propertyPath: m_LocalRotation.x
      value: 0
      objectReference: {fileID: 0}
    - target: {fileID: 4987403026492484, guid: 5ec556183dc6ee7448658a217b7dd02a, type: 2}
      propertyPath: m_LocalRotation.y
      value: 0
      objectReference: {fileID: 0}
    - target: {fileID: 4987403026492484, guid: 5ec556183dc6ee7448658a217b7dd02a, type: 2}
      propertyPath: m_LocalRotation.z
      value: 0
      objectReference: {fileID: 0}
    - target: {fileID: 4987403026492484, guid: 5ec556183dc6ee7448658a217b7dd02a, type: 2}
      propertyPath: m_LocalRotation.w
      value: 1
      objectReference: {fileID: 0}
    - target: {fileID: 4987403026492484, guid: 5ec556183dc6ee7448658a217b7dd02a, type: 2}
      propertyPath: m_RootOrder
      value: 2
      objectReference: {fileID: 0}
    - target: {fileID: 114120916255080284, guid: 5ec556183dc6ee7448658a217b7dd02a,
        type: 2}
      propertyPath: player
      value: 
      objectReference: {fileID: 507035673}
    m_RemovedComponents: []
  m_ParentPrefab: {fileID: 100100000, guid: 5ec556183dc6ee7448658a217b7dd02a, type: 2}
  m_IsPrefabParent: 0
--- !u!1 &507035673 stripped
GameObject:
  m_PrefabParentObject: {fileID: 1486553651053560, guid: dd6ee9a811a51cb4688e7756434946be,
    type: 2}
  m_PrefabInternal: {fileID: 881770121}
--- !u!114 &507035679
MonoBehaviour:
  m_ObjectHideFlags: 0
  m_PrefabParentObject: {fileID: 0}
  m_PrefabInternal: {fileID: 0}
  m_GameObject: {fileID: 507035673}
  m_Enabled: 1
  m_EditorHideFlags: 0
  m_Script: {fileID: 11500000, guid: 35903746adf150442871fa52a4cbfee6, type: 3}
  m_Name: 
  m_EditorClassIdentifier: 
  health: 0
--- !u!54 &507035680
Rigidbody:
  m_ObjectHideFlags: 0
  m_PrefabParentObject: {fileID: 0}
  m_PrefabInternal: {fileID: 0}
  m_GameObject: {fileID: 507035673}
  serializedVersion: 2
  m_Mass: 1
  m_Drag: 0
  m_AngularDrag: 0.05
  m_UseGravity: 0
  m_IsKinematic: 1
  m_Interpolate: 0
  m_Constraints: 0
  m_CollisionDetection: 0
--- !u!1001 &881770121
Prefab:
  m_ObjectHideFlags: 0
  serializedVersion: 2
  m_Modification:
    m_TransformParent: {fileID: 0}
    m_Modifications:
    - target: {fileID: 4098770746564638, guid: dd6ee9a811a51cb4688e7756434946be, type: 2}
      propertyPath: m_LocalPosition.x
      value: 0
      objectReference: {fileID: 0}
    - target: {fileID: 4098770746564638, guid: dd6ee9a811a51cb4688e7756434946be, type: 2}
      propertyPath: m_LocalPosition.y
      value: 20.35
      objectReference: {fileID: 0}
    - target: {fileID: 4098770746564638, guid: dd6ee9a811a51cb4688e7756434946be, type: 2}
      propertyPath: m_LocalPosition.z
      value: 0
      objectReference: {fileID: 0}
    - target: {fileID: 4098770746564638, guid: dd6ee9a811a51cb4688e7756434946be, type: 2}
      propertyPath: m_LocalRotation.x
      value: -0.7071068
      objectReference: {fileID: 0}
    - target: {fileID: 4098770746564638, guid: dd6ee9a811a51cb4688e7756434946be, type: 2}
      propertyPath: m_LocalRotation.y
      value: 0
      objectReference: {fileID: 0}
    - target: {fileID: 4098770746564638, guid: dd6ee9a811a51cb4688e7756434946be, type: 2}
      propertyPath: m_LocalRotation.z
      value: 0
      objectReference: {fileID: 0}
    - target: {fileID: 4098770746564638, guid: dd6ee9a811a51cb4688e7756434946be, type: 2}
      propertyPath: m_LocalRotation.w
      value: 0.7071068
      objectReference: {fileID: 0}
    - target: {fileID: 4098770746564638, guid: dd6ee9a811a51cb4688e7756434946be, type: 2}
      propertyPath: m_RootOrder
      value: 1
      objectReference: {fileID: 0}
    - target: {fileID: 4098770746564638, guid: dd6ee9a811a51cb4688e7756434946be, type: 2}
      propertyPath: m_LocalEulerAnglesHint.x
      value: -90
      objectReference: {fileID: 0}
    - target: {fileID: 114163482602429720, guid: dd6ee9a811a51cb4688e7756434946be,
        type: 2}
      propertyPath: xMovSpeed
      value: 30
      objectReference: {fileID: 0}
    - target: {fileID: 114163482602429720, guid: dd6ee9a811a51cb4688e7756434946be,
        type: 2}
      propertyPath: zMovSpeed
      value: 30
      objectReference: {fileID: 0}
    - target: {fileID: 136977731053596628, guid: dd6ee9a811a51cb4688e7756434946be,
        type: 2}
      propertyPath: m_IsTrigger
      value: 1
      objectReference: {fileID: 0}
    - target: {fileID: 114163482602429720, guid: dd6ee9a811a51cb4688e7756434946be,
        type: 2}
      propertyPath: yMovSpeed
      value: 20
      objectReference: {fileID: 0}
    - target: {fileID: 114163482602429720, guid: dd6ee9a811a51cb4688e7756434946be,
        type: 2}
      propertyPath: Bullet
      value: 
      objectReference: {fileID: 1325046179410978, guid: 6d644d2f47699f3419204e31950ed8f6,
        type: 2}
    - target: {fileID: 4329376702548152, guid: dd6ee9a811a51cb4688e7756434946be, type: 2}
      propertyPath: m_LocalPosition.x
      value: -0.09
      objectReference: {fileID: 0}
    - target: {fileID: 4329376702548152, guid: dd6ee9a811a51cb4688e7756434946be, type: 2}
      propertyPath: m_LocalPosition.y
      value: -7.94
      objectReference: {fileID: 0}
    - target: {fileID: 4329376702548152, guid: dd6ee9a811a51cb4688e7756434946be, type: 2}
      propertyPath: m_LocalPosition.z
      value: 3.24
      objectReference: {fileID: 0}
    - target: {fileID: 4329376702548152, guid: dd6ee9a811a51cb4688e7756434946be, type: 2}
      propertyPath: m_LocalRotation.x
      value: -0.019748254
      objectReference: {fileID: 0}
    - target: {fileID: 4329376702548152, guid: dd6ee9a811a51cb4688e7756434946be, type: 2}
      propertyPath: m_LocalRotation.y
      value: -0.74346954
      objectReference: {fileID: 0}
    - target: {fileID: 4329376702548152, guid: dd6ee9a811a51cb4688e7756434946be, type: 2}
      propertyPath: m_LocalRotation.z
      value: -0.66834956
      objectReference: {fileID: 0}
    - target: {fileID: 4329376702548152, guid: dd6ee9a811a51cb4688e7756434946be, type: 2}
      propertyPath: m_LocalRotation.w
      value: -0.013114234
      objectReference: {fileID: 0}
    - target: {fileID: 4329376702548152, guid: dd6ee9a811a51cb4688e7756434946be, type: 2}
      propertyPath: m_LocalEulerAnglesHint.x
      value: -83.352005
      objectReference: {fileID: 0}
    - target: {fileID: 4329376702548152, guid: dd6ee9a811a51cb4688e7756434946be, type: 2}
      propertyPath: m_LocalEulerAnglesHint.y
      value: 156.641
      objectReference: {fileID: 0}
    - target: {fileID: 4329376702548152, guid: dd6ee9a811a51cb4688e7756434946be, type: 2}
      propertyPath: m_LocalEulerAnglesHint.z
      value: 23.897001
      objectReference: {fileID: 0}
    m_RemovedComponents: []
  m_ParentPrefab: {fileID: 100100000, guid: dd6ee9a811a51cb4688e7756434946be, type: 2}
  m_IsPrefabParent: 0
--- !u!1001 &971525101
Prefab:
  m_ObjectHideFlags: 0
  serializedVersion: 2
  m_Modification:
    m_TransformParent: {fileID: 0}
    m_Modifications:
    - target: {fileID: 4582384466247724, guid: 6d644d2f47699f3419204e31950ed8f6, type: 2}
      propertyPath: m_LocalPosition.x
      value: 0
      objectReference: {fileID: 0}
    - target: {fileID: 4582384466247724, guid: 6d644d2f47699f3419204e31950ed8f6, type: 2}
      propertyPath: m_LocalPosition.y
      value: 20.35
      objectReference: {fileID: 0}
    - target: {fileID: 4582384466247724, guid: 6d644d2f47699f3419204e31950ed8f6, type: 2}
      propertyPath: m_LocalPosition.z
      value: 0
      objectReference: {fileID: 0}
    - target: {fileID: 4582384466247724, guid: 6d644d2f47699f3419204e31950ed8f6, type: 2}
      propertyPath: m_LocalRotation.x
      value: -0.7071068
      objectReference: {fileID: 0}
    - target: {fileID: 4582384466247724, guid: 6d644d2f47699f3419204e31950ed8f6, type: 2}
      propertyPath: m_LocalRotation.y
      value: 0
      objectReference: {fileID: 0}
    - target: {fileID: 4582384466247724, guid: 6d644d2f47699f3419204e31950ed8f6, type: 2}
      propertyPath: m_LocalRotation.z
      value: -0
      objectReference: {fileID: 0}
    - target: {fileID: 4582384466247724, guid: 6d644d2f47699f3419204e31950ed8f6, type: 2}
      propertyPath: m_LocalRotation.w
      value: 0.7071068
      objectReference: {fileID: 0}
    - target: {fileID: 4582384466247724, guid: 6d644d2f47699f3419204e31950ed8f6, type: 2}
      propertyPath: m_RootOrder
      value: 3
      objectReference: {fileID: 0}
    m_RemovedComponents: []
  m_ParentPrefab: {fileID: 100100000, guid: 6d644d2f47699f3419204e31950ed8f6, type: 2}
  m_IsPrefabParent: 0
